{"count":10,"next":"http://127.0.0.1:8000/api/tasks/?page=2","previous":null,"results":[{"id":2,"title":"Покормить рыбу","description":"Корм на столе","complete":false,"date":"2023-09-18","user":9,"category":9,"filter":1,"notice":1,"priority":10,"hashtag":[3,9]},{"id":3,"title":"Предложение","description":"Стать женихом","complete":true,"date":"2023-08-25","user":1,"category":7,"filter":1,"notice":1,"priority":10,"hashtag":[3,5,6,9]}]}